{
    "conv_query" : "SELECT tracking.conversions.id, from_unixtime(tracking.conversions.pixel_time), tracking.conversions.transaction_id, tracking.conversions.goal_id, tracking.conversions.status, tracking.conversions.adv_sub5 as email, tracking.goals.name as goal_name, tracking.clicks.offer_id, tracking.clicks.aff_id, tracking.clicks.aff_sub, tracking.clicks.aff_sub2, tracking.clicks.aff_sub3, tracking.clicks.aff_sub4, tracking.clicks.aff_sub5, tracking.clicks.country_code, tracking.conversions.adv_sub4 as brand, data.affiliates.company as aff_name, data.offers.name as offer_name, signups, Deposits FROM tracking.conversions LEFT JOIN tracking.goals ON (tracking.conversions.goal_id = tracking.goals.goal_id) LEFT JOIN tracking.clicks ON (tracking.conversions.transaction_id = tracking.clicks.transaction_id) LEFT JOIN data.affiliates ON (data.affiliates.affiliate_id = tracking.clicks.aff_id) LEFT JOIN data.offers ON (data.offers.offer_id = tracking.clicks.offer_id) LEFT JOIN (SELECT tracking.clicks.aff_id as Affiliate, tracking.clicks.offer_id as Offer ,sum(tracking.conversions.ftc) as signups, sum(tracking.conversions.ftd) as Deposits FROM tracking.conversions LEFT JOIN tracking.clicks ON (tracking.conversions.transaction_id = tracking.clicks.transaction_id) WHERE (tracking.conversions.ftc=1 OR tracking.conversions.ftd=1) AND tracking.conversions.pixel_time>={start} AND tracking.conversions.pixel_time <={end} GROUP BY tracking.clicks.aff_id, tracking.clicks.offer_id) AS Test ON (Affiliate=tracking.clicks.aff_id and Offer=tracking.clicks.offer_id) WHERE (tracking.conversions.ftc=1 OR tracking.conversions.ftd=1) AND tracking.conversions.pixel_time>={start} AND tracking.conversions.pixel_time<={end}",
    "conv_query_fields" : ["conv_id", "pixel_time", "transaction_id", "goal_id", "status", "email", "goal_name", "offer_id", "aff_id", "aff_sub", "aff_sub2", "aff_sub3", "aff_sub4", "aff_sub5", "country_code", "brand", "aff_name", "offer_name", "signups", "deposits"],
    "conv_query_fields_tables" : ["conversions.id", "conversion.pixel_time", "conversions.transaction_id", "conversions.goal_id", "conversions.status", "conversions.adv_sub5", "tracking.goals.name", "clicks.offer_id", "clicks.aff_id", "clicks.aff_sub", "clicks.aff_sub2", "clicks.aff_sub3", "clicks.aff_sub4", "clicks.aff_sub5", "clicks.country_code",  "conversions.adv_sub4", "affiliates.company","data.offers.name", "signups", "Deposits"],
    
    "conv_update_select_conversion" : "SELECT con.status, con.amount FROM tracking.conversions con WHERE con.id='{}'",
    "conv_update" : "UPDATE tracking.conversions SET status='{}' WHERE id='{}'",
    "conv_update_with_amount" : "UPDATE tracking.conversions SET status='{}', amount='{}' WHERE id='{}'",
    "conv_query_counts" : "SELECT count(tracking.conversions.id) as counts FROM tracking.conversions LEFT JOIN tracking.goals ON (tracking.conversions.goal_id = tracking.goals.goal_id) LEFT JOIN tracking.clicks ON (tracking.conversions.transaction_id = tracking.clicks.transaction_id) LEFT JOIN data.affiliates ON (data.affiliates.affiliate_id = tracking.clicks.aff_id) LEFT JOIN data.offers ON (data.offers.offer_id = tracking.clicks.offer_id) LEFT JOIN (SELECT tracking.clicks.aff_id as Affiliate, tracking.clicks.offer_id as Offer ,sum(tracking.conversions.ftc) as signups, sum(tracking.conversions.ftd) as Deposits FROM tracking.conversions LEFT JOIN tracking.clicks ON (tracking.conversions.transaction_id = tracking.clicks.transaction_id) WHERE (tracking.conversions.ftc=1 OR tracking.conversions.ftd=1) AND tracking.conversions.pixel_time>={start} AND tracking.conversions.pixel_time <={end} GROUP BY tracking.clicks.aff_id, tracking.clicks.offer_id) AS Test ON (Affiliate=tracking.clicks.aff_id and Offer=tracking.clicks.offer_id) WHERE (tracking.conversions.ftc=1 OR tracking.conversions.ftd=1) AND tracking.conversions.pixel_time>={start} AND tracking.conversions.pixel_time<={end}",

    "min_deposit_amount" : 1,

    "postback_max_days_old" : 3,
    "postback_srctransaction_param_name" : "st_id",
    "postback_srctransaction_days_ago" : 180,

    "pixel_data_query" : "SELECT conversions.event, conversions.id, conversions.status, conversions.transaction_id, conversions.goal_id, clicks.offer_id, clicks.aff_id, clicks.source, clicks.aff_sub, clicks.aff_sub2, clicks.aff_sub3, clicks.aff_sub4, clicks.aff_sub5, conversions.adv_sub1, conversions.adv_sub2, conversions.adv_sub3, conversions.adv_sub4, conversions.adv_sub5, conversions.amount, clicks.country_code, clicks.user_id, clicks.ad_id, clicks.customer_id, clicks.adv_id, clicks.url_id, conversions.fto, conversions.ftc, conversions.ftd, conversions.fte, clicks.trk_sys_id, clicks.trk_req_id FROM conversions LEFT JOIN clicks ON (conversions.transaction_id = clicks.transaction_id) WHERE clicks.customer_id <> 2825 AND clicks.test=0 AND (conversions.fto=1 OR conversions.ftd=1 OR conversions.ftc=1 OR (conversions.fte=1 AND (conversions.event = 'PA' OR conversions.event = 'SD'))) AND conversions.sent=0 AND (((conversions.ftc=1 OR conversions.fto=1 OR (conversions.fte=1 and (conversions.event='PA' OR conversions.event = 'SD'))) AND (conversions.status='approved' OR conversions.status='')) OR (conversions.ftd=1 AND conversions.status='approved') OR (conversions.fte=1 AND (conversions.event = 'PA' OR conversions.event = 'SD') AND clicks.offer_id in ({offers_fte_pa_whitelist})) OR (conversions.fte=1 AND (conversions.event = 'PA' OR conversions.event = 'SD') AND clicks.aff_id in ({affiliates_fte_pa_whitelist})) OR (conversions.fte=1 AND (conversions.event = 'PA' OR conversions.event = 'SD') AND clicks.trk_sys_id IN ({trk_sys_id_fte_pa_whitelist})) OR (conversions.fto=1 AND clicks.offer_id in ({offers_fto_whitelist})) OR (conversions.fto=1 AND clicks.aff_id in ({affiliates_fto_whitelist})) OR (conversions.fto=1 AND clicks.trk_sys_id IN ({trk_sys_id_fto_whitelist})) OR (conversions.ftc=1 AND clicks.offer_id in ({offers_ftc_whitelist})) OR (conversions.ftc=1 AND clicks.aff_id in ({affiliates_ftc_whitelist})) OR (conversions.ftc=1 AND clicks.trk_sys_id IN ({trk_sys_id_ftc_whitelist})) OR (conversions.ftd=1 AND clicks.offer_id in ({offers_ftd_whitelist})) OR (conversions.ftd=1 AND clicks.aff_id in ({affiliates_ftd_whitelist})) OR (conversions.ftd=1 AND clicks.trk_sys_id IN ({trk_sys_id_ftd_whitelist}))) AND tracking.conversions.pixel_time>={last_conv_time}",
    "pixel_data_query_fields" : ["event", "conv_id", "status", "transaction_id", "goal_id", "offer_id", "affiliate_id", "source", "aff_sub", "aff_sub2", "aff_sub3", "aff_sub4", "aff_sub5", "adv_sub1", "adv_sub2", "adv_sub3", "adv_sub4", "adv_sub5", "amount", "country_code", "user_id", "ad_id", "customer_id", "adv_id", "url_id", "fto", "ftc", "ftd", "fte", "trk_sys_id", "trk_req_id"],

    "pixel_data_query_extended" : "SELECT conversions.event, conversions.id, conversions.status, conversions.transaction_id, conversions.goal_id, clicks.offer_id, clicks.aff_id, clicks.source, clicks.aff_sub, clicks.aff_sub2, clicks.aff_sub3, clicks.aff_sub4, clicks.aff_sub5, conversions.adv_sub1, conversions.adv_sub2, conversions.adv_sub3, conversions.adv_sub4, conversions.adv_sub5, conversions.amount, clicks.country_code, clicks.user_id, clicks.ad_id, clicks.customer_id, clicks.adv_id, clicks.url_id, conversions.fto, conversions.ftc, conversions.ftd, conversions.fte, clicks.trk_sys_id, clicks.trk_req_id, clicks.id AS click_id, conversions_ext.conv_type, conversions_ext.sdd, conversions_ext.pae, conversions_ext.ref_id, conversions_ext.varparam_6, conversions_ext.firstname, conversions_ext.lastname, conversions_ext.email, conversions_ext.phone FROM conversions LEFT JOIN clicks ON (conversions.transaction_id = clicks.transaction_id) LEFT JOIN conversions_ext ON (conversions.id = conversions_ext.id) WHERE clicks.customer_id <> 2825 AND clicks.test=0 AND (conversions.fto=1 OR conversions.ftd=1 OR conversions.ftc=1 OR (conversions.fte=1 AND (conversions.event = 'PA' OR conversions.event = 'SD'))) AND conversions.sent=0 AND (((conversions.ftc=1 OR conversions.fto=1 OR (conversions.fte=1 and (conversions.event='PA' OR conversions.event = 'SD'))) AND (conversions.status='approved' OR conversions.status='')) OR (conversions.ftd=1 AND conversions.status='approved') OR (conversions.fte=1 AND (conversions.event = 'PA' OR conversions.event = 'SD') AND clicks.offer_id in ({offers_fte_pa_whitelist})) OR (conversions.fte=1 AND (conversions.event = 'PA' OR conversions.event = 'SD') AND clicks.aff_id in ({affiliates_fte_pa_whitelist})) OR (conversions.fte=1 AND (conversions.event = 'PA' OR conversions.event = 'SD') AND clicks.trk_sys_id IN ({trk_sys_id_fte_pa_whitelist})) OR (conversions.fto=1 AND clicks.offer_id in ({offers_fto_whitelist})) OR (conversions.fto=1 AND clicks.aff_id in ({affiliates_fto_whitelist})) OR (conversions.fto=1 AND clicks.trk_sys_id IN ({trk_sys_id_fto_whitelist})) OR (conversions.ftc=1 AND clicks.offer_id in ({offers_ftc_whitelist})) OR (conversions.ftc=1 AND clicks.aff_id in ({affiliates_ftc_whitelist})) OR (conversions.ftc=1 AND clicks.trk_sys_id IN ({trk_sys_id_ftc_whitelist})) OR (conversions.ftd=1 AND clicks.offer_id in ({offers_ftd_whitelist})) OR (conversions.ftd=1 AND clicks.aff_id in ({affiliates_ftd_whitelist})) OR (conversions.ftd=1 AND clicks.trk_sys_id IN ({trk_sys_id_ftd_whitelist}))) AND conversions_ext.is_suspend=0 AND tracking.conversions.pixel_time>={last_conv_time}",
    "pixel_data_query_fields_extended" : ["event", "conv_id", "status", "transaction_id", "goal_id", "offer_id", "affiliate_id", "source", "aff_sub", "aff_sub2", "aff_sub3", "aff_sub4", "aff_sub5", "adv_sub1", "adv_sub2", "adv_sub3", "adv_sub4", "adv_sub5", "amount", "country_code", "user_id", "ad_id", "customer_id", "adv_id", "url_id", "fto", "ftc", "ftd", "fte", "trk_sys_id", "trk_req_id", "click_id", "conv_type_id","sdd","pae","ref_id","varparam_6", "firstname", "lastname", "email", "phone"],

    "pixel_url_query" : "SELECT pixel_id, code, price_per_country FROM offerpixel WHERE STATUS='active' AND ((all_affiliates=1 OR affiliate_id={}) AND (all_goals=1 OR goal_id={}) AND (all_offers=1 OR offer_id={})) AND trk_sys_id={} ORDER BY affiliate_id DESC",
    "pixel_url_query_fields" : ["pixel_id", "pixel_url", "price_per_country"],

    "pixel_sent_inc" : "UPDATE conversions SET sent=sent+1 WHERE id='{}'",
    "pixel_error_inc" : "UPDATE conversions SET errors=errors+1 WHERE id='{}'",

    "pixel_srctransaction_find_pushuserid" : "SELECT cc.id, cd.varparam_6 FROM tracking.clicks_device cd LEFT JOIN tracking.clicks cc ON cc.id=cd.id WHERE cc.transaction_id='{}'",
    "pixel_srctransaction_find_srctransaction" : "SELECT cl.transaction_id, cl.click_time FROM tracking.pa_collection_clicks cl WHERE cl.pushuserid='{}' ORDER BY cl.click_date LIMIT 1",
    "pixel_find_source_transid_any_conversion" : "SELECT cl.transaction_id, cl.click_time, cl.pushuserid FROM tracking.pa_collection_clicks cl LEFT JOIN tracking.pa_conversion_clicks cn ON cl.pushuserid = cn.pushuserid WHERE cn.conv_click_id='{}' AND cl.status_origin_date = 10 ORDER BY cl.click_date LIMIT 1",

    "offer_payout_data_query" : "SELECT payout, precent_payout, payout_type FROM offer_payout WHERE affiliate_id={} AND offer_id={} AND goal_id={}",
    "offer_payout_data_query_fields" : ["payout", "precent_payout", "payout_type"],

    "default_deposit_payout_data_query" : "SELECT default_payout FROM offers WHERE offer_id={}",
    "default_deposit_payout_query_fields" : ["payout"],

    "default_conv_payout_data_query" : "SELECT default_payout FROM goals WHERE offer_id={} AND goal_id={}",
    "default_conv_payout_query_fields" : ["payout"],

    "brands_payout_query" : "SELECT id, brand_name, country_code, payout FROM brands_payout",
    "brands_payout_query_fields" : ["id", "brand", "country", "payout"],
    "brands_payout_insert" : "INSERT INTO brands_payout (brand_name, country_code, payout) VALUES ({}, {}, {})",
    "brands_payout_update" : "UPDATE brands_payout SET {}={} WHERE id={}",
    "brands_payout_delete" : "DELETE FROM brands_payout WHERE id={}",

    "optin_check_get_list" : "select conversions.id, conversions.adv_sub5, clicks.aff_id from conversions LEFT JOIN clicks ON clicks.transaction_id=conversions.transaction_id where status='pending' and conversions.test=0 and conversions.fto=1 and conversions.sent=0 and conversions.pixel_time > UNIX_TIMESTAMP() - 604800",
    "optin_check_get_list_fields" : ["id", "email", "aff_id"],    "optin_verification" : "select count(*) from conversions where (fto=1 or dup_fto=1) and status='approved' and adv_sub5='{}'",
    "optin_status_update" : "UPDATE conversions SET status='{}' WHERE id='{}'",

    "optin_aff_track_query" : "select aff_id, tracking from optin_tracking",
    "optin_aff_track_query_fields" : ["aff_id", "tracking"],

    "get_offers_query" : "SELECT display_advertiser, advertiser_id, offer_id, name, offer_url, status, description, modified FROM offers",
    "get_offers_query_fields" : ["company", "advertiser_id", "offer_id", "offer_name", "offer_url", "offer_status", "offer_description", "date_modified"],

    "pixel_country_amount_query": "SELECT amount from tracking.pixel_country_price where pixel_id = {pixel_id} and country_code = '{country_code}' and status_rec = 0",
    "pixel_country_data_query": "SELECT op.pixel_id as pixel_id, op.price_per_country as price_per_country, affiliate_id, offer_id, goal_id, trk_sys_id, all_affiliates, all_offers, all_goals FROM tracking.offerpixel op WHERE op.status = 'active'",
    "pixel_country_price_query": "SELECT pcp.country_code as country_code, pcp.amount as amount,  pcp.status_rec as country_status FROM tracking.pixel_country_price pcp WHERE pcp.pixel_id = {pixel_id}",
    "pixel_country_price_update_query": "INSERT INTO pixel_country_price (pixel_id, country_code, amount, status_rec) VALUES({pixel_id}, '{country_code}', {amount},  {country_status}) ON DUPLICATE KEY UPDATE amount={amount}, status_rec={country_status}",
    "pixel_country_price_disable_query": "UPDATE pixel_country_price SET status_rec = 0 WHERE pixel_id = {pixel_id} AND country_code = '{country_code}'",
    "country_data_query": "SELECT id as country_id, country_a2 as country_code, amount, country_status FROM tracking.country",
    "country_update_query" : "UPDATE tracking.country SET amount = {amount}, country_status = {country_status} WHERE id = {country_id}",
    "is_price_country_affected": 1,

    "crone_id_clicks_creating" : 10,
    "crone_id_send_ftd_approve_api" : 20,
    "sql_pa_collection_clicks_table" : "pa_collection_clicks",

    "create_clicks_check_is_crone_run" : "SELECT COUNT(*) FROM tracking.crones_queue WHERE status_done=1 and crone_id='{}'",
    "create_clicks_start_new_process" : "INSERT INTO tracking.crones_queue (crone_id,start_date,status_done,date_created) VALUES ('{}','{}','{}','{}')",
    "create_clicks_end_crone_process" : "UPDATE tracking.crones_queue SET end_date='{}', status_done='{}',date_updated='{}' WHERE id='{}'",
    "create_clicks_get_transactions_to_create" : "SELECT id, transaction_id, tracking_route, click_data FROM tracking.clicks_create_queue WHERE status_done=0 AND date_to_create < '{}' AND queue_id='{}'",
    "create_clicks_check_transaction_id_exists": "SELECT COUNT(*) FROM tracking.clicks WHERE transaction_id='{}'",
    "create_clicks_update_queue_tosuccess" : "UPDATE tracking.clicks_create_queue SET if_exists='{}', click_created='{}',id_created='{}',status_done='{}',date_updated='{}',flow_message='{}' WHERE transaction_id='{}' AND queue_id='{}'",
    "create_clicks_update_queue_tofailed" : "UPDATE tracking.clicks_create_queue SET if_exists='{}', click_created='{}',id_created='{}',date_updated='{}',error_message='{}' WHERE transaction_id='{}' AND queue_id='{}'",
    "create_clicks_update_queue_toexists" : "UPDATE tracking.clicks_create_queue SET if_exists='{}', status_done='{}',date_updated='{}',click_id='{}' WHERE transaction_id='{}' AND queue_id='{}'",
    "create_clicks_get_clickid by_transaction_id": "SELECT id, click_time FROM tracking.clicks WHERE transaction_id='{}' ORDER BY ID LIMIT 1",

    "sql_clicks_table" : "clicks",
    "sql_clicks_device_table" : "clicks_device",
    "sql_clicks_table_col" : ["click_time", "transaction_id", "user_id", "ad_id", "customer_id", "offer_id", "aff_id", "adv_id", "url_id", "source", "aff_sub", "aff_sub2", "aff_sub3", "aff_sub4", "aff_sub5", "country_code", "ip", "session_ip", "refer", "pixel_refer", "redirect_url", "server_name", "server_ip", "trk_sys_id", "trk_req_id", "trk_url", "test"],
    "sql_clicks_table_col_def_val" : [0, "", "", "", 0, 0, 0, 0, 0, "", "", "", "", "", "", "", "", "", "", "", "", "", "", 0, 0, "", 0],

    "sql_clicks_device_table_col" : ["id", "click_time", "is_bot", "is_email_client", "is_mobile", "is_pc", "is_tablet", "is_touch_capable", "device_family", "browser_family", "os_family", "varparam_1", "varparam_2", "varparam_3", "varparam_4", "varparam_5", "varparam_6", "varparam_7", "txtparam_1", "txtparam_2", "intparam_1", "intparam_2"],
    "sql_clicks_device_table_col_def_val" : [0, 0, 0, 0, 0, 0, 0, 0, "", "", "", "", "", "", "", "", "", "", "", "", 0, 0],

    "create_clicks_pa_aff_id" : 3003,
    "create_clicks_pa_offer_id" : 7003,
    "create_clicks_pa_track_sys_id" : 0,

    "create_clicks_default_aff_id" : 3001,
    "create_clicks_default_offer_id" : 7001,
    "create_clicks_default_track_sys_id" : 0,

    "send_ftd_api_get_conversions_tosend" : "SELECT id, conversion_id, transaction_id, tracking_route FROM tracking.clicks_create_queue WHERE status_done=0 AND date_to_create < '{}' AND queue_id='{}'",
    "send_ftd_api_update_queue" : "UPDATE tracking.clicks_create_queue SET send_tryings=send_tryings+1,status_done='{}',date_updated='{}',flow_message='{}',error_message='{}',click_data=CONCAT(click_data, '{}') WHERE conversion_id='{}' AND queue_id='{}'",
    "api_deposit_approve_url" : "https://admin.electra-hub.com/conversion_status",
    "api_deposit_approve_token" : "TUAWwJLCxaJQ99GhEq6q44xD25WRRr94",

    "crone_id_update_dynamic_aff" : 60,
    "get_dynamic_aff_id_transactions" : "SELECT id,transaction_id,click_data FROM tracking.clicks_create_queue WHERE status_done=0 AND date_to_create < '{}' AND queue_id='{}'",
    "push77_dynamic_affiliates" : [802772],
    "api_electra_tracking_url" : "http://affpb.electra-hub.com/clicks/{}",
    "api_electra_tracking_token" : "sdDdsf23sAa324setgyvd6b7bBd6bEdV57a98a83d4a5sv53sr5feSV3fg",
    "update_dynamic_aff_for_click":"UPDATE tracking.clicks SET aff_id = '{}' WHERE transaction_id = '{}'",
    "dynamic_aff_update_queue" : "UPDATE tracking.clicks_create_queue SET status_done='{}',date_updated='{}',flow_message='{}',error_message='{}' WHERE id='{}' AND queue_id='{}'",

    "sql_set_trksysid_all" : "SELECT trk_sys_id, inc_affiliates, inc_offers, route FROM data.trk_seq_ids",

    "indirect_part" : "70",
    "indi_status_to_send_param" : "conv_indirect_send_status",
    "sql_select_db_param" : "SELECT NUM_VALUE, STRING_VALUE FROM data.db_parameters WHERE NAME = '{}'",
    "sql_select_indi_transactions_to_send" : "SELECT idr.id, idr.conv_trans_id, idr.orig_trans_id, idr.channel_id, idr.orig_aff_id, idr.exp_date, ch.name AS channel_name, trk.indirect_url, idr.orig_conv_type FROM reports.indirect_postback_log idr, data.trk_seq_ids trk, data.channels ch WHERE idr.status_send = 0 AND idr.time_to_send < '{}' AND idr.orig_trk_sys_id=trk.trk_sys_id AND idr.channel_id = ch.id ORDER BY idr.id LIMIT 100",
    "sql_select_indi_transactions_to_send_params" : ["id","transaction_id","src_transaction_id","channel_id","orig_aff_id","exp_date","channel","indirect_url","orig_conv_type"],

    "sql_update_indi_transaction_to_done" : "UPDATE reports.indirect_postback_log SET status_send='{}', time_sent='{}', answer_code='{}', postback_url='{}', answer_text='{}' WHERE id='{}'",


    "gdpr_access_key" : "aF34Fg65h53DFH$yhirfd20QSWD12@!34dgkimo9843vgklfdeg%kj"
}
