{
    "connections": {
      "data_db": {
        "driver": "mysql",
        "host": "",
        "port": "",
        "user": "",
        "pass": "",
        "db": ""
      },
      "tracking_db": {
        "driver": "mysql",
        "host": "",
        "port": "",
        "user": "",
        "pass": "",
        "db": ""
      }
    },
    "threads": {
      "intervals": {
        "pixel_sync_interval": 60,
        "optin_check_interval": 60,
        "esp_dist_interval": 60,
        "push77_dist_interval": 60,
        "esp_dist_changed_handler": 60
      }
    },
    "server": {
      "name": "",
      "ip": ""
    },
   "pixel_sync_auth": {
    "affpb.electra-hub.com": {
      "access_account": "26792460245",
      "access_token": "eyJhbGciOiJIUzI1NiIsInR5cCI6IkpXVCJ9.eyJzeXN0ZW1faWQiOjEsImNyZWF0ZWRfYXQiOiIyMDIxLTAzLTE5IDEyOjEyOjA0IiwiaWF0IjoxNjE2NDAwMTY4fQ.jQKRjRZNipeQqh_CTxvK3hRRT4MW06mdv4g3hw9Y8aM"
      }
    }
  }
  